Sex,WeightClassKg,EntryDate,Name,BirthDate,Country,Bench1Kg,Bench2Kg,Bench3Kg,Best3BenchKg,Bench4Kg,TotalKg,BodyweightKg,Event,Equipment,Division,Place
M,49,2019-07-13,Omar Sami Hamadeh Qarada,1981-03-01,Jordan,170,172,-176,172,,172,47.48,B,Raw,Open,2
M,49,2019-07-13,Mohammad Alshnaiti,2001-10-10,Jordan,-123,-124,,,,,41.7,B,Raw,Open,DQ
M,49,2019-07-13,Maysar Olaymi,1993-01-06,Saudi Arabia,-120,,,,,,45.33,B,Raw,Open,DQ
M,49,2019-07-13,Adam Alderman,1983-05-16,UK,-135,135,-137,135,,135,48.72,B,Raw,Open,13
M,49,2019-07-13,Joao Maria Franca Junior,1995-10-20,Brazil,141,146,-149,146,,146,48.53,B,Raw,Open,10
M,49,2019-07-13,Hiroshi Miura,1964-10-14,Japan,-125,-125,125,125,,125,47.36,B,Raw,Open,16
M,49,2019-07-13,David Degtyarev,1996-06-12,Kazakhstan,-162,162,-173,162,,162,48.74,B,Raw,Open,5
M,49,2019-07-13,Takashi Kato,1988-06-08,Japan,115,-119,-119,115,,115,48.78,B,Raw,Open,18
M,49,2019-07-13,Farman Basha,1974-03-25,India,113,,,113,,113,46.4,B,Raw,Open,19
M,49,2019-07-13,Parmjeet Kumar,1992-02-02,India,140,145,146,146,,146,47.12,B,Raw,Open,9
M,49,2019-07-13,Hadj Ahmed Biour,1983-03-09,Algeria,138,-143,-143,138,,138,45.95,B,Raw,Open,12
M,49,2019-07-13,Yu Zheng,1976-03-26,China,-170,172,-176,172,,172,48.85,B,Raw,Open,3
M,49,2019-07-13,Lê Văn Công,1984-06-20,Vietnam,-160,165,-172,165,,165,47.39,B,Raw,Open,4
M,49,2019-07-13,Sławomir Szymański,1985-03-19,Poland,-130,130,-134,130,,130,48.55,B,Raw,Open,14
M,49,2019-07-13,Patrick Jean Ardon,1983-04-27,France,-136,-143,-143,,,,48.84,B,Raw,Open,DQ
M,49,2019-07-13,Yakubu Adesokan,1979-07-16,Nigeria,145,150,-165,150,,150,46.9,B,Raw,Open,6
M,49,2019-07-13,Rodrigo Villamarin,1997-08-22,Argentina,101,-105,-105,101,,101,46.67,B,Raw,Open,21
M,49,2019-07-13,Pia Laophakdee,1989-12-12,Laos,-128,-128,128,128,,128,48.77,B,Raw,Open,15
M,49,2019-07-13,Keun Jin Choi,1976-11-13,South Korea,140,145,-146,145,,145,48.41,B,Raw,Open,11
M,49,2019-07-13,Yernat Kasmukhanov,1990-10-15,Kazakhstan,-113,115,-119,115,,115,48.04,B,Raw,Open,17
M,49,2019-07-13,Parvin Mammadov,1995-02-16,Azerbaijan,142,150,-156,150,,150,48.61,B,Raw,Open,7
M,49,2019-07-13,Aliou Bawa,1983-12-31,Togo,-102,-102,105,105,,105,42.11,B,Raw,Open,20
M,49,2019-07-13,Vladimir Balynets,1985-04-25,Russia,160,167,173,173,,173,48.95,B,Raw,Open,1
M,49,2019-07-13,Abdullah Kayapinar,1992-10-02,Turkey,149,-154,-155,149,,149,42.36,B,Raw,Open,8
M,54,2019-07-14,Surasit Chantak,1973-07-19,Thailand,85,-90,-90,85,,85,52.56,B,Raw,Open,12
M,54,2019-07-14,Thanakrit Makkntorn,1998-01-22,Thailand,-87,87,-95,87,,87,53.07,B,Raw,Open,11
M,54,2019-07-14,Paolo Agosti,1991-05-13,Italy,127,-131,-133,127,,127,52.9,B,Raw,Open,9
M,54,2019-07-14,Iurii Egorchenkov,1992-01-30,Russia,155,161,-166,161,,161,53.39,B,Raw,Open,5
M,54,2019-07-14,Jian Wang,1976-05-01,China,-173,-173,-173,,,,54,B,Raw,Open,DQ
M,54,2019-07-14,Khabibullo Khafizov,1986-02-24,Tajikistan,-130,-133,-133,,,,53.23,B,Raw,Open,DQ
M,54,2019-07-14,Axel Bourlon,1991-03-14,France,150,-156,-156,150,,150,53.34,B,Raw,Open,7
M,54,2019-07-14,Dylan Keith Sparks,1998-06-02,Canada,-90,-90,-90,,,,51.32,B,Raw,Open,DQ
M,54,2019-07-14,Tetsuo Nishizaki,1977-04-26,Japan,132,137,-140,137,,137,50.82,B,Raw,Open,8
M,54,2019-07-14,Vladimir Krivulya,1991-11-09,Russia,183,189,-195,189,,189,53.69,B,Raw,Open,1
M,54,2019-07-14,Taha Adel Mohamed Abdelmajid,1987-06-08,Egypt,160,164,-170,164,,164,52.86,B,Raw,Open,4
M,54,2019-07-14,Mitsunori Ichikawa,1974-01-15,Japan,117,124,-127,124,,124,51.35,B,Raw,Open,10
M,54,2019-07-14,Dimitrios Bakochristos,1983-04-16,Greece,163,165,-170,165,,165,53.17,B,Raw,Open,3
M,54,2019-07-14,Roland Ezuruike,1976-05-05,Nigeria,177,-185,-189,177,,177,52.9,B,Raw,Open,2
M,54,2019-07-14,Kostiantyn Panasiuk,1991-06-06,Ukraine,150,156,-161,156,,156,53.62,B,Raw,Open,6
M,54,2019-07-14,Binh An Nguyen,1985-01-28,Vietnam,-175,-177,-178,,,,53.69,B,Raw,Open,DQ
M,59,2019-07-14,Gwangyeoul Park,1989-04-26,South Korea,125,-127,-127,125,,125,58.31,B,Raw,Open,15
M,59,2019-07-14,Kazuki Okuyama,1997-06-24,Japan,-122,124,-131,124,,124,58.08,B,Raw,Open,16
M,59,2019-07-14,Bakary Diallo,1975-12-14,Mali,125,-130,-135,125,,125,56.63,B,Raw,Open,14
M,59,2019-07-14,Sherif Osman,1982-09-15,Egypt,190,195,196,196,,196,58.64,B,Raw,Open,1
M,59,2019-07-14,Jinglang Yang,1990-04-24,China,-183,-183,-185,,,,58.29,B,Raw,Open,DQ
M,59,2019-07-14,Mariusz Tomczyk,1971-05-10,Poland,,,,,,,58.2,B,Raw,Open,DQ
M,59,2019-07-14,Paschalis Kouloumoglou,1994-11-03,Greece,135,141,146,146,,146,57.55,B,Raw,Open,10
M,59,2019-07-14,Ildar Bedderdinov,1984-05-04,Russia,178,183,-187,183,,183,57.75,B,Raw,Open,4
M,59,2019-07-14,Juhani Kokko,1986-06-30,Finland,120,130,-136,130,,130,58.75,B,Raw,Open,13
M,59,2019-07-14,Juan Carlos Garrido Acevedo,1980-03-04,Chile,180,184,-187,184,,184,58.1,B,Raw,Open,3
M,59,2019-07-14,Ibrahim Jibola Dauda,1983-10-10,Nigeria,-172,-173,173,173,,173,56.89,B,Raw,Open,7
M,59,2019-07-14,Tomohiro Kouse,1993-03-23,Japan,-123,125,132,132,,132,55.5,B,Raw,Open,12
M,59,2019-07-14,Suhil Masaud,1998-07-25,Libya,110,-120,121,121,,121,58.11,B,Raw,Open,18
M,59,2019-07-14,Vedaste Niyonzima,1994-01-01,Rwanda,-130,-130,-132,,,,57.65,B,Raw,Open,DQ
M,59,2019-07-14,Pedro Elias Cruz Martinez,2002-04-28,Mexico,99,-105,105,105,,105,58.23,B,Raw,Open,20
M,59,2019-07-14,Yongkai Qi,1998-11-08,China,187,190,195,195,,195,57.96,B,Raw,Open,2
M,59,2019-07-14,Olalekan Sulaimon Rufai,1988-05-02,Nigeria,172,-175,175,175,,175,58.22,B,Raw,Open,6
M,59,2019-07-14,Bruno Pinheiro Carra,1989-01-20,Brazil,-175,175,-184,175,,175,57.55,B,Raw,Open,5
M,59,2019-07-14,Van Phuc Nguyen,1981-10-06,Vietnam,145,150,155,155,,155,57.96,B,Raw,Open,9
M,59,2019-07-14,Jorge Eduardo Carinao Cardenas,1991-02-18,Chile,-170,-170,-170,,,,57.46,B,Raw,Open,DQ
M,59,2019-07-14,Amorntep Pongsao,1995-11-13,Thailand,140,145,-147,145,,145,57.21,B,Raw,Open,11
M,59,2019-07-14,Vladimir Nizavitin,1998-01-17,Kazakhstan,107,115,-121,115,,115,58.87,B,Raw,Open,19
M,59,2019-07-14,Seyed Yousef Yousefi Pashaki,1988-07-18,Iran,170,-178,-179,170,,170,58.87,B,Raw,Open,8
M,59,2019-07-14,Stanislav Shakiyev,1988-01-11,Kazakhstan,122,-128,-131,122,,122,55.74,B,Raw,Open,17
M,65,2019-07-15,Adou Herve Ano,1983-05-30,Ivory Coast,-160,162,168,168,,168,63.54,B,Raw,Open,7
M,65,2019-07-15,Abraheem Othman,1993-07-10,Libya,-135,-135,-135,,,,64.4,B,Raw,Open,DQ
M,65,2019-07-15,Quanxi Yang,1982-03-04,China,150,-155,160,160,,160,64.26,B,Raw,Open,10
M,65,2019-07-15,Lei Liu,1987-11-16,China,-190,190,-208,190,,190,64.71,B,Raw,Open,4
M,65,2019-07-15,Alexandr Daskov,1987-03-12,Kazakhstan,126,131,-136,131,,131,63.84,B,Raw,Open,14
M,65,2019-07-15,Narong Kasanun,1977-07-04,Thailand,165,-170,-170,165,,165,64.08,B,Raw,Open,8
M,65,2019-07-15,Ludovico Giuseppe Forte,1991-12-13,Italy,131,-136,-136,131,,131,64.31,B,Raw,Open,15
M,65,2019-07-15,Aseel Alhawsawi,1997-05-18,Saudi Arabia,117,-125,-125,117,,117,63.72,B,Raw,Open,16
M,65,2019-07-15,Paul Kehinde,1988-07-07,Nigeria,-194,-195,-195,,,,64.28,B,Raw,Open,DQ
M,65,2019-07-15,Bonnie Bunyau Gustin,1999-06-03,Malaysia,185,197,207,207,,207,63.5,B,Raw,Open,1
M,65,2019-07-15,Christian Matthew Largo,1998-12-22,USA,129,-135,137,137,,137,63.63,B,Raw,Open,12
M,65,2019-07-15,Hocine Bettir,1990-08-02,Algeria,191,194,-200,194,,194,63.32,B,Raw,Open,2
M,65,2019-07-15,Nikolaos Gkountanis,1977-02-15,Greece,150,-155,-155,150,,150,64.34,B,Raw,Open,11
M,65,2019-07-15,Amir Jafari Arangeh,1985-12-22,Iran,-193,193,-201,193,,193,64.87,B,Raw,Open,3
M,65,2019-07-15,Anuar Zhakupov,1987-07-24,Kazakhstan,110,-115,-115,110,,110,61.29,B,Raw,Open,17
M,65,2019-07-15,Grzegorz Lanzer,1986-04-27,Poland,-179,-179,-179,,,,62.09,B,Raw,Open,DQ
M,65,2019-07-15,Aleksandr Diukin,1985-07-12,Russia,-163,163,-169,163,,163,64.25,B,Raw,Open,9
M,65,2019-07-15,Oliver Francis Brown,1986-03-24,UK,-165,-165,-165,,,,64.04,B,Raw,Open,DQ
M,65,2019-07-15,Herbert Enrique Aceituno Lopez,1985-11-01,El Salvador,-179,179,-182,179,,179,63.6,B,Raw,Open,6
M,65,2019-07-15,Yuya Toda,1982-04-17,Japan,-133,-135,-135,,,,60.76,B,Raw,Open,DQ
M,65,2019-07-15,Giuseppe Colantuoni,1993-04-30,Italy,-128,-128,-131,,,,63.81,B,Raw,Open,DQ
M,65,2019-07-15,Ahmed Al-Karkhi,2002-06-19,Iraq,-145,-150,-150,,,,62.98,B,Raw,Open,DQ
M,65,2019-07-15,Mohammad Tarbash,1984-06-09,Jordan,-182,182,-193,182,,182,64.14,B,Raw,Open,5
M,65,2019-07-15,Yoshiki Sano,1968-09-06,Japan,132,-135,-135,132,,132,64.41,B,Raw,Open,13
M,72,2019-07-16,Bakhtiyor Donayorov,1993-06-16,Tajikistan,168,174,-176,174,,174,69.94,B,Raw,Open,9
M,72,2019-07-16,Sergey Meladze,1980-04-01,Turkmenistan,180,-185,-185,180,,180,71.38,B,Raw,Open,7
M,72,2019-07-16,Rasool Mohsin,1987-11-17,Iraq,175,-190,-190,175,,175,71.97,B,Raw,Open,8
M,72,2019-07-16,Peng Hu,1989-01-26,China,209,-212,-215,209,,209,71.53,B,Raw,Open,1
M,72,2019-07-16,Jose David Coronel,1986-12-15,Argentina,125,-130,-131,125,,125,71.62,B,Raw,Open,19
M,72,2019-07-16,Jake Campbell Beaton,1988-05-30,Canada,-92,-94,-94,,,,70.56,B,Raw,Open,DQ
M,72,2019-07-16,Steven James Henness,1983-02-25,Australia,93,-98,-102,93,,93,71.15,B,Raw,Open,23
M,72,2019-07-16,Nathaniel Wilding,1992-10-20,UK,-176,-176,,,,,71.94,B,Raw,Open,DQ
M,72,2019-07-16,Hayder Al-Behadili,2000-07-23,Iraq,115,-120,,115,,115,69.06,B,Raw,Open,21
M,72,2019-07-16,Mosaab Gharsalla,1990-04-27,Libya,-118,118,-123,118,,118,71.5,B,Raw,Open,20
M,72,2019-07-16,Metwaly Ibrahim Mathna,1974-11-30,Egypt,182,-191,-191,182,,182,71.93,B,Raw,Open,4
M,72,2019-07-16,Thongsa Marasri,1975-01-30,Thailand,155,-160,160,160,,160,70.83,B,Raw,Open,12
M,72,2019-07-16,Jai Deep,1989-12-30,India,-182,,,,,,71.99,B,Raw,Open,DQ
M,72,2019-07-16,Dmitrii Apanasevich,1987-07-21,Russia,163,-170,-170,163,,163,70.94,B,Raw,Open,11
M,72,2019-07-16,Gyuho Kim,1981-10-27,South Korea,153,-157,-157,153,,153,70.43,B,Raw,Open,14
M,72,2019-07-16,Medet Zhunusov,1983-11-29,Kazakhstan,127,-133,-135,127,,127,67.95,B,Raw,Open,18
M,72,2019-07-16,Nobuhiro Saitoh,1967-04-10,Japan,-141,-145,-145,,,,71.61,B,Raw,Open,DQ
M,72,2019-07-16,Nnamdi Innocent,1980-09-30,Nigeria,190,-200,-202,190,,190,70.71,B,Raw,Open,3
M,72,2019-07-16,Donato Telesca,1999-02-05,Italy,181,-183,-183,181,,181,71.66,B,Raw,Open,6
M,72,2019-07-16,Mahmoud Attia,1981-08-12,Egypt,176,181,-191,181,,181,68.85,B,Raw,Open,5
M,72,2019-07-16,Jose Manuel Abud Coronado,1974-10-26,Dominican Republic,-145,-145,145,145,,145,70.71,B,Raw,Open,15
M,72,2019-07-16,Luis Alexander Gonzalez-Poma,1995-11-12,USA,-103,103,-105,103,,103,69.48,B,Raw,Open,22
M,72,2019-07-16,Saif Mohamed Zaabi,1979-08-30,UAE,140,-145,-146,140,,140,66.28,B,Raw,Open,16
M,72,2019-07-16,Nader Moradi,1982-09-21,Iran,-202,202,-210,202,,202,71.18,B,Raw,Open,2
M,72,2019-07-16,Kentaro Higuchi,1972-12-09,Japan,172,-180,-182,172,,172,71.1,B,Raw,Open,10
M,72,2019-07-16,Muhamed Nigo,1978-01-05,Uganda,-125,-125,130,130,,130,70.92,B,Raw,Open,17
M,72,2019-07-16,Rey Melchor Dimas Vasquez,1986-01-06,Panama,153,-157,-158,153,,153,70.42,B,Raw,Open,13
M,80,2019-07-16,Piotr Stanislaw Szymeczek,1974-05-08,Poland,-170,-170,170,170,,170,78.83,B,Raw,Open,12
M,80,2019-07-16,Yurii Babynets,1995-07-17,Ukraine,-184,184,191,191,,191,79.16,B,Raw,Open,5
M,80,2019-07-16,Shadi Issa,1986-06-04,Syria,-183,183,-186,183,,183,79.29,B,Raw,Open,8
M,80,2019-07-16,Gan-Erdene Gansukh,1976-07-25,Mongolia,125,-133,-133,125,,125,78.12,B,Raw,Open,28
M,80,2019-07-16,Tomasz Lukasz Kociubinski,1981-04-15,Poland,177,183,-184,183,,183,79.76,B,Raw,Open,9
M,80,2019-07-16,Marc Josef O'Farrell,1988-01-10,Australia,82,86,-88,86,,86,77.13,B,Raw,Open,31
M,80,2019-07-16,Maksat Argymbaev,1985-10-26,Kyrgyzstan,-163,163,-167,163,,163,78.77,B,Raw,Open,17
M,80,2019-07-16,Nodarzhan Khamrullayev,1970-10-18,Kazakhstan,-165,-165,165,165,,165,79.46,B,Raw,Open,15
M,80,2019-07-16,Mohamed Sobhy Shaaban Elelfat,1979-06-25,Egypt,211,217,225,225,,225,79.15,B,Raw,Open,3
M,80,2019-07-16,Porfirio Francisco Arredondo Luna,1971-09-15,Mexico,175,183,-190,183,,183,76.41,B,Raw,Open,7
M,80,2019-07-16,Abdulaziz Suhlul,1992-05-18,Saudi Arabia,137,147,-152,147,,147,75.9,B,Raw,Open,27
M,80,2019-07-16,Arun Ranga,1993-12-11,India,107,117,121,121,,121,79.5,B,Raw,Open,30
M,80,2019-07-16,Harri Kauppila,1979-03-31,Finland,162,-167,-170,162,,162,79.43,B,Raw,Open,19
M,80,2019-07-16,Wuttipong Jaikla,1984-02-13,Thailand,75,77,-82,77,,77,76.85,B,Raw,Open,32
M,80,2019-07-16,Roohallah Rostami,1989-05-02,Iran,215,225,236,236,-241,236,79.4,B,Raw,Open,1
M,80,2019-07-16,Ma Hussein Mat Noh,1980-08-05,Malaysia,170,175,-180,175,,175,77.96,B,Raw,Open,10
M,80,2019-07-16,Denis Raiul,1992-01-12,Moldova,-165,-170,-170,,,,79.3,B,Raw,Open,DQ
M,80,2019-07-16,Chinnaphop Khamdam,1993-12-31,Thailand,155,159,-165,159,,159,77.03,B,Raw,Open,21
M,80,2019-07-16,Hasan Al-Tameemi,1977-08-12,Iraq,-160,162,-166,162,,162,72.6,B,Raw,Open,18
M,80,2019-07-16,Ailton Bento de Souza,1985-03-07,Brazil,-176,-176,-177,,,,78.82,B,Raw,Open,DQ
M,80,2019-07-16,Matthew James Gordon,1990-03-30,New Zealand,149,-154,-154,149,,149,78.86,B,Raw,Open,26
M,80,2019-07-16,Rajinder Singh Rahelu,1973-07-22,India,150,156,161,161,,161,76.15,B,Raw,Open,20
M,80,2019-07-16,Yoshitaka Sato,1974-12-07,Japan,-140,140,150,150,,150,78.02,B,Raw,Open,24
M,80,2019-07-16,Xiao-Fei Gu,1989-03-14,China,221,227,-236,227,,227,78.62,B,Raw,Open,2
M,80,2019-07-16,Julien Avom Mbume,1995-08-02,France,163,168,-175,168,,168,77.12,B,Raw,Open,13
M,80,2019-07-16,Ahmad Razm Azar,1992-03-02,Georgia,-183,-185,-185,,,,79.43,B,Raw,Open,DQ
M,80,2019-07-16,Matteo Cattini,1984-07-17,Italy,158,-166,-170,158,,158,75.56,B,Raw,Open,23
M,80,2019-07-16,Yegor Bolinger,1994-04-07,Kazakhstan,140,150,-155,150,,150,79.09,B,Raw,Open,25
M,80,2019-07-16,Oscar Ernest Makoube Moussima,1981-06-18,Cameroon,160,165,-172,165,,165,79.98,B,Raw,Open,16
M,80,2019-07-16,Juan Antonio Ramirez Miramontes,2000-09-27,Mexico,116,120,122,122,,122,78.15,B,Raw,Open,29
M,80,2019-07-16,Hajime Ujiro,1973-01-28,Japan,168,172,-175,172,,172,77.17,B,Raw,Open,11
M,80,2019-07-16,Gkremislav Moysiadis,1978-09-26,Greece,186,190,-191,190,,190,76.49,B,Raw,Open,6
M,80,2019-07-16,Benjamin Graham Wright,1987-04-23,Australia,155,159,-161,159,,159,79.58,B,Raw,Open,22
M,80,2019-07-16,Alexander Belov,1991-05-17,Russia,-186,-186,-186,,,,79.61,B,Raw,Open,DQ
M,80,2019-07-16,Francisco Tulio Palomeque Palacios,1967-10-19,Colombia,185,191,193,193,,193,79.19,B,Raw,Open,4
M,80,2019-07-16,Ross John Austen,1982-01-02,UK,-163,163,166,166,,166,79.33,B,Raw,Open,14
M,88,2019-07-17,Abderrahim El Ammari,1976-12-01,Morocco,-177,-180,-180,,,,84.49,B,Raw,Open,DQ
M,88,2019-07-17,Sedric Roussel Watchou Kouokam,1986-02-19,Hungary,173,-180,-182,173,,173,85.49,B,Raw,Open,13
M,88,2019-07-17,Abdulrraziq Albaebaa,1974-01-20,Libya,150,155,-160,155,,155,85.34,B,Raw,Open,17
M,88,2019-07-17,Rafik Arabat,1990-12-04,France,188,-196,-197,188,,188,86.31,B,Raw,Open,10
M,88,2019-07-17,Abdelkareem Mohmmad Ahmad Khattab,1991-09-04,Jordan,-205,207,213,213,,213,83.68,B,Raw,Open,3
M,88,2019-07-17,Evanio Rodrigues da Silva,1984-09-02,Brazil,-206,-206,-212,,,,86.15,B,Raw,Open,DQ
M,88,2019-07-17,Dovletyar Uremov,1984-06-12,Turkmenistan,-150,150,-156,150,,150,86.76,B,Raw,Open,18
M,88,2019-07-17,Magomed Dzhamalov,1994-10-10,Russia,206,211,-216,211,,211,87.13,B,Raw,Open,4
M,88,2019-07-17,Chaichet Haemawan,1998-09-17,Thailand,115,120,-125,120,,120,86.38,B,Raw,Open,22
M,88,2019-07-17,Hideki Odo,1974-10-17,Japan,-189,189,-197,189,,189,83.61,B,Raw,Open,9
M,88,2019-07-17,Jainer Rafael Cantillo Guette,1975-01-29,Colombia,-204,204,-212,204,,204,83.91,B,Raw,Open,7
M,88,2019-07-17,Stefan Rosca,1990-08-06,Moldova,-185,185,-193,185,,185,87.59,B,Raw,Open,12
M,88,2019-07-17,Oninger Jesus Drake Vega,1972-05-24,Cuba,200,204,208,208,,208,87.12,B,Raw,Open,5
M,88,2019-07-17,Varinder Singh,1987-01-13,India,-180,180,185,185,,185,86.41,B,Raw,Open,11
M,88,2019-07-17,Tomasz Dawid Majewski,1993-10-15,Poland,166,172,-174,172,,172,86.65,B,Raw,Open,14
M,88,2019-07-17,Masaharu Ishihara,1972-06-28,Japan,-140,140,-146,140,,140,86.06,B,Raw,Open,21
M,88,2019-07-17,Abdullah Al-Kaabi #1,2002-08-06,Iraq,135,142,-147,142,,142,86.02,B,Raw,Open,20
M,88,2019-07-17,Hany Abdelhady,1980-05-19,Egypt,207,212,216,216,,216,87.27,B,Raw,Open,2
M,88,2019-07-17,Adel Shanbih,1989-12-13,UAE,168,-173,-173,168,,168,84.64,B,Raw,Open,15
M,88,2019-07-17,Anto. Boi,1978-07-03,Indonesia,145,150,155,155,,155,85.2,B,Raw,Open,16
M,88,2019-07-17,Farhod Umirzakov,1996-05-16,Uzbekistan,203,-207,-212,203,,203,87.45,B,Raw,Open,8
M,88,2019-07-17,Rakhmetzhan Khamayev,1986-11-25,Kazakhstan,-205,-205,-205,,,,86.94,B,Raw,Open,DQ
M,88,2019-07-17,Jixiong Ye,1993-05-25,China,220,228,-234.5,228,,228,85.52,B,Raw,Open,1
M,88,2019-07-17,Saeed Hawsawi,1991-02-21,Saudi Arabia,-135,135,148,148,,148,85.33,B,Raw,Open,19
M,88,2019-07-17,Sudhir,1994-10-27,India,206,-211,-216,206,,206,86.39,B,Raw,Open,6
M,97,2019-07-18,Huichao Cai,1983-10-22,China,222,-227,-227,222,,222,95.17,B,Raw,Open,6
M,97,2019-07-18,Thaer Al-Ali,1976-01-03,Iraq,213,-220,-225,213,,213,95.81,B,Raw,Open,11
M,97,2019-07-18,Makoto Majima,1971-08-24,Japan,150,-158,-158,150,,150,95.12,B,Raw,Open,21
M,97,2019-07-18,Joginder Singh,1986-03-04,India,-143,148,-162,148,,148,90.09,B,Raw,Open,23
M,97,2019-07-18,Yurii Kupriianov,1982-08-28,Ukraine,-175,180,-186,180,,180,93.84,B,Raw,Open,18
M,97,2019-07-18,Fabio Torres Silva,1976-05-07,Colombia,220,-225,225,225,,225,95.96,B,Raw,Open,3
M,97,2019-07-18,Robert Alberto Yrigoyen Veliz,1979-04-25,Venezuela,-190,-190,-190,,,,96.34,B,Raw,Open,DQ
M,97,2019-07-18,Mohamed Elsayed Mohamed Ahmed,1982-01-18,Egypt,211,216,-223,216,,216,94.88,B,Raw,Open,9
M,97,2019-07-18,Mohammed Khamis Khalaf,1969-02-23,UAE,-210,-220,220,220,,220,92.38,B,Raw,Open,7
M,97,2019-07-18,Lucas Ezequiel Gareca,1995-06-05,Argentina,151,160,-165,160,,160,96.92,B,Raw,Open,20
M,97,2019-07-18,Seyed Hamed Solhipour Avanji,1989-05-22,Iran,225,230,235,235,,235,95.47,B,Raw,Open,1
M,97,2019-07-18,Kazuhito Sato,1980-05-21,Japan,148,-156,-156,148,,148,95.88,B,Raw,Open,24
M,97,2019-07-18,Mu'taz Zakaria Daoud Al Juneidi,1976-04-02,Jordan,210,217,225,225,,225,96.02,B,Raw,Open,4
M,97,2019-07-18,Atmaji Priambodo,1980-04-29,Indonesia,185,-193,193,193,,193,93.49,B,Raw,Open,14
M,97,2019-07-18,Igor Shmorgun,1983-01-12,Russia,-196,196,-202,196,,196,95.61,B,Raw,Open,13
M,97,2019-07-18,Bayramgeldi Saparov,1972-11-18,Turkmenistan,170,175,180,180,,180,89.97,B,Raw,Open,16
M,97,2019-07-18,Rashed Hassan Ahmed,1980-10-10,UAE,100,-120,,100,,100,93.78,B,Raw,Open,25
M,97,2019-07-18,Andrei Samovik,1996-02-03,Russia,,,,,,,96.71,B,Raw,Open,DQ
M,97,2019-07-18,Yee Khie Jong,1988-11-19,Malaysia,215,-223,-223,215,,215,95.38,B,Raw,Open,10
M,97,2019-07-18,Nurlan Babajanov,1992-04-11,Azerbaijan,-198,198,-202,198,,198,95.49,B,Raw,Open,12
M,97,2019-07-18,Frank Herlando Feliu Ubilla,1981-12-23,Chile,-173,-173,173,173,,173,94.53,B,Raw,Open,19
M,97,2019-07-18,Patrique Dankers,1976-11-06,Netherlands,-180,180,-185,180,,180,92.29,B,Raw,Open,17
M,97,2019-07-18,Petar Milenković,1984-10-25,Serbia,216,-222,223,223,,223,95.15,B,Raw,Open,5
M,97,2019-07-18,Kalai Vanen R Nadesan,1959-02-17,Singapore,150,-155,-155,150,,150,96.44,B,Raw,Open,22
M,97,2019-07-18,Panpan Yan,1990-02-05,China,-222,222,227,227,,227,94.96,B,Raw,Open,2
M,97,2019-07-18,Ahmed Shafik,1973-11-10,USA,180,185,190,190,,190,89.97,B,Raw,Open,15
M,97,2019-07-18,Abdulazeez Ibrahim,1978-08-10,Nigeria,-210,220,-225,220,,220,94.11,B,Raw,Open,8
M,107,2019-07-18,José de Jesús Castillo Castillo,1984-08-24,Mexico,230,235,-240,235,,235,103.54,B,Raw,Open,3
M,107,2019-07-18,Elshan Huseynov,1977-11-21,Azerbaijan,217,-227,-235,217,,217,103.25,B,Raw,Open,7
M,107,2019-07-18,Sodnompiljee Enkhbayar,1985-08-24,Mongolia,-245,247,-253,247,,247,105.15,B,Raw,Open,1
M,107,2019-07-18,Michal Salwa,1988-08-24,Poland,179,182,-190,182,,182,104.63,B,Raw,Open,13
M,107,2019-07-18,Akaki Jintcharadze,1987-07-19,Georgia,203,210,-215,210,,210,105.4,B,Raw,Open,8
M,107,2019-07-18,Katsuhito Nakatsuji,1969-11-23,Japan,193,199,202,202,,202,104.77,B,Raw,Open,9
M,107,2019-07-18,Ahmed Khamis Albaloushi,1974-12-01,UAE,190,-195,-195,190,,190,105.76,B,Raw,Open,12
M,107,2019-07-18,Zhyrgalbek Orosbaev,1993-07-19,Kyrgyzstan,-205,-205,-205,,,,106.64,B,Raw,Open,DQ
M,107,2019-07-18,Youngbae Moon,1983-11-30,South Korea,140,-145,145,145,,145,106.66,B,Raw,Open,18
M,107,2019-07-18,Mohd Shahmil Md Saad,1986-05-14,Malaysia,130,150,,150,,150,104.38,B,Raw,Open,17
M,107,2019-07-18,Saman Razi,1986-03-24,Iran,230,-236,-236,230,,230,104.43,B,Raw,Open,4
M,107,2019-07-18,Jacob Schrom,1988-03-22,USA,-202,-205,-205,,,,103.84,B,Raw,Open,DQ
M,107,2019-07-18,Mateus de Assis Silva,1997-05-27,Brazil,200,-211,-211,200,,200,105.65,B,Raw,Open,10
M,107,2019-07-18,Mohammad Abuarar,1996-02-02,Jordan,-175,-176,178,178,,178,100.51,B,Raw,Open,16
M,107,2019-07-18,Sandor Sas,1981-02-09,Hungary,,,,,,,104.69,B,Raw,Open,DQ
M,107,2019-07-18,Sung Yun Jung,1983-11-19,South Korea,173,178,-181,178,,178,97.41,B,Raw,Open,15
M,107,2019-07-18,Sachin Chaudhary,1983-09-30,India,170,180,-186,180,,180,99.26,B,Raw,Open,14
M,107,2019-07-18,Konstantin Matsnev,1972-07-09,Russia,220,-231,-237,220,,220,105.56,B,Raw,Open,5
M,107,2019-07-18,Spartak Ramazanov,1983-02-02,Turkmenistan,,,,,,,100.56,B,Raw,Open,DQ
M,107,2019-07-18,Abbas Naisan,1983-03-14,Iraq,185,191,-200,191,,191,105.61,B,Raw,Open,11
M,107,2019-07-18,Aliakbar Gharibshi,1982-03-21,Iran,240,-250,-254,240,,240,106.12,B,Raw,Open,2
M,107,2019-07-18,Nuriddin Davlatov,1989-02-19,Uzbekistan,-212,218,-221,218,,218,106.5,B,Raw,Open,6
M,107+,2019-07-19,Adilet Kamchybekov,1992-03-26,Kyrgyzstan,165,175,-182,175,,175,109.94,B,Raw,Open,12
M,107+,2019-07-19,Shamo Aslanov,1983-03-23,Azerbaijan,-210,-216,-225,,,,141.09,B,Raw,Open,DQ
M,107+,2019-07-19,Jamil Saleh Elshebli,1979-04-09,Jordan,-240,-240,,,,,127.4,B,Raw,Open,DQ
M,107+,2019-07-19,Faris Saadoon Abed Al-Ageeli,1974-05-20,Iraq,235,-250,-250,235,,235,125.93,B,Raw,Open,3
M,107+,2019-07-19,Mykhailo Melnykov,1978-03-03,Ukraine,-175,,,,,,130.01,B,Raw,Open,DQ
M,107+,2019-07-19,Siamand Rahman,1988-03-21,Iran,250,265,,265,,265,200,B,Raw,Open,1
M,107+,2019-07-19,Keun Bae Chun,1978-01-01,South Korea,210,-216,216,216,,216,151.65,B,Raw,Open,7
M,107+,2019-07-19,Jhon Freddy Castaneda Velasquez,1980-04-17,Colombia,206,213,216,216,,216,126.35,B,Raw,Open,6
M,107+,2019-07-19,Iurii Khuazhev,1970-09-02,Russia,-205,205,-212,205,,205,126.13,B,Raw,Open,9
M,107+,2019-07-19,Mansour Pourmirzaei,1980-09-21,Iran,-236,236,-251,236,,236,154.44,B,Raw,Open,2
M,107+,2019-07-19,Antonio Deandre Martin,1989-02-17,USA,227,-235,-237,227,,227,171.98,B,Raw,Open,4
M,107+,2019-07-19,Konstantinos Dimou,1981-02-02,Greece,,,,,,,149.92,B,Raw,Open,DQ
M,107+,2019-07-19,Modou Gamo,1986-06-22,The Gambia,120,-121,-127,120,,120,107.19,B,Raw,Open,14
M,107+,2019-07-19,Hussein Al-Jber,2000-01-02,Iraq,155,-162,-165,155,,155,119.29,B,Raw,Open,13
M,107+,2019-07-19,Iago Gorgodze,1976-10-19,Georgia,-200,200,-211,200,,200,111.96,B,Raw,Open,10
M,107+,2019-07-19,Petr Filatov,1988-06-20,Russia,-225,225,-237,225,,225,170.63,B,Raw,Open,5
M,107+,2019-07-19,Khalid Al Najim,1984-12-08,Saudi Arabia,200,211,-220,211,,211,162.88,B,Raw,Open,8
M,107+,2019-07-19,Marek Kamzik,1974-09-13,Slovakia,177,182,-190,182,,182,126.64,B,Raw,Open,11
F,41,2019-07-13,Katalin Engelhardt,1971-03-17,Hungary,52,-56,-57,52,,52,39.9,B,Raw,Open,17
F,41,2019-07-13,Ni Nengah Widiasih,1992-12-12,Indonesia,-98,-98,-98,,,,40.46,B,Raw,Open,DQ
F,41,2019-07-13,Jinyun Li,1991-10-18,China,85,89,92,92,,92,40.19,B,Raw,Open,2
F,41,2019-07-13,Akissi Michelle Kouadio,1979-08-01,Ivory Coast,-68,-68,68,68,,68,39.64,B,Raw,Open,12
F,41,2019-07-13,Tursynay Kabyl,2000-01-07,Kazakhstan,63,-66,-70,63,,63,40.87,B,Raw,Open,14
F,41,2019-07-13,Sakina Khatun,1989-06-20,India,-82,82,-86,82,,82,39.76,B,Raw,Open,6
F,41,2019-07-13,Leidy Rodriguez Rodriguez,1983-11-29,Cuba,86,-88,-89,86,,86,40.48,B,Raw,Open,5
F,41,2019-07-13,Aura Cristina Poblador Granados,1995-03-23,Colombia,-88,-88,-89,,,,39.29,B,Raw,Open,DQ
F,41,2019-07-13,Miwa Naruke,1969-03-19,Japan,52,55,-57,55,,55,40.63,B,Raw,Open,16
F,41,2019-07-13,Samira Guerioua,1984-03-13,Algeria,-80,81,-83,81,,81,40,B,Raw,Open,8
F,41,2019-07-13,Manpreet Kaur,1987-01-17,India,76,-78,-78,76,,76,40.14,B,Raw,Open,9
F,41,2019-07-13,Latsami Sipaseuth,1987-09-08,Laos,56,-58,-61,56,,56,40.25,B,Raw,Open,15
F,41,2019-07-13,Lara Aparecida de Lima,2003-04-25,Brazil,71,-76,-76,71,,71,38.47,B,Raw,Open,11
F,41,2019-07-13,Yuliya Petrusseva,1976-05-21,Kazakhstan,60,-63,63,63,,63,39.94,B,Raw,Open,13
F,41,2019-07-13,Yulia Vorontsova,1996-05-28,Russia,82,-87,-89,82,,82,40.12,B,Raw,Open,7
F,41,2019-07-13,Zoe Newson,1992-03-24,UK,65,70,75,75,,75,40.98,B,Raw,Open,10
F,41,2019-07-13,Noura Baddour,1984-11-13,Syria,86,90,-92,90,,90,37.48,B,Raw,Open,3
F,41,2019-07-13,Nawal Ramadan,1992-04-08,Egypt,-87,87,-91,87,,87,40.5,B,Raw,Open,4
F,41,2019-07-13,Zhe Cui,1986-12-01,China,97,101,-104.5,101,104.5,101,40.42,B,Raw,Open,1
F,45,2019-07-13,Maryna Kopiika,1991-01-12,Ukraine,95,-98,-98,95,,95,42.72,B,Raw,Open,6
F,45,2019-07-13,Mimozette Nghamsi Fotie,1977-12-20,Cameroon,80,-82,84,84,,84,44.67,B,Raw,Open,7
F,45,2019-07-13,Lingling Guo,1989-08-18,China,114,117,118,118,,118,44.3,B,Raw,Open,1
F,45,2019-07-13,Gulim Kurmanbayeva,1988-04-06,Kazakhstan,65,70,75,75,,75,44.2,B,Raw,Open,11
F,45,2019-07-13,Iuliia Murasheva,1970-04-23,Russia,-77,-77,77,77,,77,44.41,B,Raw,Open,10
F,45,2019-07-13,Nur Aini Bte Mohamad Yasli,1992-03-05,Singapore,-65,65,-68,65,,65,44.04,B,Raw,Open,13
F,45,2019-07-13,Mayra Alejandra Hernandez Godinez,1990-08-06,Mexico,78,80,-83,80,,80,44.44,B,Raw,Open,9
F,45,2019-07-13,Laura Cerero Gabriel,1967-08-18,Mexico,-75,-75,-75,,,,44.28,B,Raw,Open,DQ
F,45,2019-07-13,Latifat Omolola Tijani,1981-11-08,Nigeria,105,-112,-116,105,,105,43.59,B,Raw,Open,3
F,45,2019-07-13,Alina Solodukhina,1994-01-01,Kazakhstan,65,-70,-70,65,,65,44.16,B,Raw,Open,14
F,45,2019-07-13,Kaia Scholl,1993-08-03,Australia,53,-56,56,56,,56,43.23,B,Raw,Open,17
F,45,2019-07-13,Yunki Shin,1968-03-12,South Korea,-65,-65,65,65,,65,44.5,B,Raw,Open,15
F,45,2019-07-13,Nazmiye Muslu Muratlı,1979-06-13,Turkey,108,112,116,116,,116,44.57,B,Raw,Open,2
F,45,2019-07-13,Hiromi Kobayashi,1969-03-12,Japan,-56,-56,56,56,,56,42.93,B,Raw,Open,16
F,45,2019-07-13,Oriana del Carmen Teran Velazquez,1998-08-01,Venezuela,70,-74,-74,70,,70,44.83,B,Raw,Open,12
F,45,2019-07-13,Justyna Kozdryk,1980-03-04,Poland,94,96,98,98,,98,43.41,B,Raw,Open,4
F,45,2019-07-13,Larisa Berieva,1982-10-18,Russia,77,81,-83,81,,81,44.3,B,Raw,Open,8
F,45,2019-07-13,Meijiao Chen,1989-07-26,China,93,-95,95,95,,95,41.24,B,Raw,Open,5
F,50,2019-07-14,Halima Lemtakhem,1983-02-20,Morocco,78,-80,80,80,,80,49.22,B,Raw,Open,10
F,50,2019-07-14,Akiko Nakajima,1975-09-28,Japan,-54,54,-59,54,,54,48.53,B,Raw,Open,13
F,50,2019-07-14,Suzanne Menye Meto,1987-05-15,Cameroon,-80,-80,-80,,,,48.89,B,Raw,Open,DQ
F,50,2019-07-14,Wiunawis Nairobys Hernandez,1974-08-19,Venezuela,-88,-88,-88,,,,49.12,B,Raw,Open,DQ
F,50,2019-07-14,Thi Linh Phuong Dang,1983-04-12,Vietnam,-95,-98,98,98,,98,49.09,B,Raw,Open,5
F,50,2019-07-14,Rehab Ahmed,1991-03-02,Egypt,114,-118,-120,114,,114,48.91,B,Raw,Open,1
F,50,2019-07-14,Dandan Hu,1989-03-10,China,113,-117,-119,113,,113,48.95,B,Raw,Open,2
F,50,2019-07-14,Marina Beketova,1985-01-31,Russia,-88,-88,88,88,,88,48.9,B,Raw,Open,9
F,50,2019-07-14,Lidiya Solovyova,1978-01-21,Ukraine,104,106,111,111,,111,49.03,B,Raw,Open,3
F,50,2019-07-14,Anastasiia Mamadamirova,1993-08-02,Russia,98,-103,-103,98,,98,49.45,B,Raw,Open,6
F,50,2019-07-14,Gulbanu Abdykhalykova,1972-09-15,Kazakhstan,-80,-80,80,80,,80,49.29,B,Raw,Open,11
F,50,2019-07-14,Kabira Askarova,1976-09-29,Kazakhstan,-77,-77,-77,,,,48.01,B,Raw,Open,DQ
F,50,2019-07-14,Nohemi Carabali,1988-02-18,Colombia,102,105,-110,105,,105,48.91,B,Raw,Open,4
F,50,2019-07-14,Olivia Broome,2001-06-13,UK,93,-96,96,96,,96,49.56,B,Raw,Open,7
F,50,2019-07-14,Katalin Mezei,1979-09-28,Hungary,-66,-66,68,68,,68,48.88,B,Raw,Open,12
F,50,2019-07-14,Loida Zabala Ollero,1987-04-05,Spain,-95,95,-100,95,,95,49.8,B,Raw,Open,8
F,55,2019-07-15,Shanshan Shi,1988-12-13,China,95,100,-106,100,,100,52.04,B,Raw,Open,7
F,55,2019-07-15,Amalia Pérez Vazquez,1973-07-10,Mexico,-120,-120,-121,,,,54.23,B,Raw,Open,DQ
F,55,2019-07-15,Mozah Alzeyoudi,1992-10-18,UAE,75,-78,79,79,,79,51.98,B,Raw,Open,10
F,55,2019-07-15,Bikakhanim Valiyeva,1987-07-16,Azerbaijan,-50,-56,-56,,,,53.85,B,Raw,Open,DQ
F,55,2019-07-15,Cuijuan Xiao,1986-04-19,China,117,121,126,126,,126,54.46,B,Raw,Open,2
F,55,2019-07-15,Mariana Shevchuk,1996-05-22,Ukraine,125,128,-131.5,128,-131.5,128,53.98,B,Raw,Open,1
F,55,2019-07-15,Camila Campos,1995-02-23,Chile,103,106,-110,106,,106,54.54,B,Raw,Open,5
F,55,2019-07-15,Zhanat Tazhikenova,1971-10-03,Kazakhstan,50,-55,57,57,,57,54.12,B,Raw,Open,13
F,55,2019-07-15,Wandi Kongmuang,1967-05-05,Thailand,-75,75,-80,75,,75,53.53,B,Raw,Open,11
F,55,2019-07-15,Tamara Podpalnaya,1972-01-03,Russia,110,113,122,122,,122,54.68,B,Raw,Open,3
F,55,2019-07-15,Omaima Omar,1987-07-31,Egypt,92,94,99,99,,99,53.77,B,Raw,Open,8
F,55,2019-07-15,Hoang Tuyet Loan Chau,1975-02-08,Vietnam,-90,93,98,98,,98,53.85,B,Raw,Open,9
F,55,2019-07-15,Najat El Garraa,1982-07-27,Morocco,95,100,103,103,,103,54.83,B,Raw,Open,6
F,55,2019-07-15,Besra Duman,2001-01-10,Turkey,110,-119,-119,110,,110,54.39,B,Raw,Open,4
F,55,2019-07-15,Eri Macdonald,1983-05-17,Japan,55,59,-63,59,,59,54.1,B,Raw,Open,12
F,61,2019-07-15,Fatma Korany,2000-07-01,Egypt,101,106,-112,106,,106,58.62,B,Raw,Open,6
F,61,2019-07-15,Yasemin Ceylan Baydar,1987-03-10,Turkey,105,-111,-111,105,,105,59.11,B,Raw,Open,7
F,61,2019-07-15,Hat Motnok,1977-02-03,Thailand,75,-80,-80,75,,75,56.95,B,Raw,Open,15
F,61,2019-07-15,Ruza Kuzieva,1994-03-12,Uzbekistan,120,-125,125,125,,125,55.81,B,Raw,Open,2
F,61,2019-07-15,Lucy Ogechukwu Ejike,1977-10-16,Nigeria,125,130,132,132,,132,60.23,B,Raw,Open,1
F,61,2019-07-15,Nicola Dore,1988-06-17,Ireland,-67,67,-70,67,,67,59.28,B,Raw,Open,17
F,61,2019-07-15,Valentina Zavarayeva,1987-01-25,Turkmenistan,80,85,90,90,,90,58.37,B,Raw,Open,12
F,61,2019-07-15,Fatima Jazmin Castellanos Rodriguez,2001-09-02,Mexico,60,-63,-63,60,,60,55.5,B,Raw,Open,19
F,61,2019-07-15,Fatema Alhasan,1977-10-10,Syria,-96,-96,96,96,,96,60.79,B,Raw,Open,10
F,61,2019-07-15,Anastasiia Kondrashina,1994-04-20,Russia,92,96,-100,96,,96,58.67,B,Raw,Open,9
F,61,2019-07-15,Phikul Pholto,1976-03-30,Thailand,65,-70,-70,65,,65,58.95,B,Raw,Open,18
F,61,2019-07-15,Natela Gamidova,1977-09-02,Georgia,50,-53,-55,50,,50,57.27,B,Raw,Open,20
F,61,2019-07-15,Rayisa Toporkova,1986-02-18,Ukraine,118,123,-126,123,,123,60.46,B,Raw,Open,3
F,61,2019-07-15,Yuseon Hwang,1996-08-03,South Korea,68,72,-75,72,,72,60.23,B,Raw,Open,16
F,61,2019-07-15,Irina Kazantseva,1978-02-21,Russia,105,110,-115,110,,110,57.89,B,Raw,Open,5
F,61,2019-07-15,Greta Vardanyan,1986-02-20,Armenia,85,90,93,93,,93,57,B,Raw,Open,11
F,61,2019-07-15,Ya-Hsuan Lin,1976-08-11,Taiwan,-77,77,84,84,,84,60.29,B,Raw,Open,14
F,61,2019-07-15,Youn Shil Jeong,1974-05-17,South Korea,85,-88,-88,85,,85,60.53,B,Raw,Open,13
F,61,2019-07-15,Jianjin Cui,1988-07-09,China,115,-121,121,121,,121,60.77,B,Raw,Open,4
F,61,2019-07-15,Gihan Abdelaziz,1974-10-29,Egypt,96,100,-106,100,,100,57.02,B,Raw,Open,8
F,67,2019-07-17,Iman Hafez,1980-05-12,Egypt,102,-107,-110,102,,102,66.3,B,Raw,Open,10
F,67,2019-07-17,Maria Princesa Franco Ponce,2002-05-03,Mexico,58,60,-62,60,,60,62.17,B,Raw,Open,16
F,67,2019-07-17,Mujidat Olaitan Ibrahim,1986-02-14,Nigeria,122,126,127,127,,127,63.84,B,Raw,Open,2
F,67,2019-07-17,Gamze Sayar,1997-05-22,Turkey,-105,-105,-105,,,,64.97,B,Raw,Open,DQ
F,67,2019-07-17,Tetyana Shyrokolava,1979-08-11,Ukraine,112,-117,117,117,,117,62.77,B,Raw,Open,6
F,67,2019-07-17,Mariana D'Andrea,1998-02-12,Brazil,116,120,-122,120,,120,65.47,B,Raw,Open,4
F,67,2019-07-17,Fatma Omar,1973-10-17,Egypt,116,121,-127,121,,121,64.41,B,Raw,Open,3
F,67,2019-07-17,Geeta,1987-10-12,India,-76,76,82,82,,82,65.55,B,Raw,Open,13
F,67,2019-07-17,Kheda Berieva,1992-02-28,Russia,111,-118,118,118,,118,66.9,B,Raw,Open,5
F,67,2019-07-17,Sandugash Baimukanova,1975-01-07,Kazakhstan,66,-70,-75,66,,66,66.28,B,Raw,Open,15
F,67,2019-07-17,Hyeong Hui Kim,1973-10-21,South Korea,106,112,-115,112,,112,64.65,B,Raw,Open,8
F,67,2019-07-17,Bertha Cecilia Fernandez Arango,1978-07-12,Colombia,-102,-102,102,102,,102,65.35,B,Raw,Open,9
F,67,2019-07-17,Paulina Teresa Przywecka-Puziak,1991-10-05,Poland,94,98,-102,98,,98,64.04,B,Raw,Open,11
F,67,2019-07-17,Somkhoun Anon,1977-10-14,Thailand,70,75,-80,75,,75,61.01,B,Raw,Open,14
F,67,2019-07-17,Jelena Pipper,1976-06-28,Estonia,-58,58,-62,58,,58,66.14,B,Raw,Open,17
F,67,2019-07-17,Raushan Koishibayeva,1966-03-07,Kazakhstan,117,-122,-122,117,,117,65.79,B,Raw,Open,7
F,67,2019-07-17,Nezha Binane,1969-03-25,Morocco,80,-85,85,85,,85,62.62,B,Raw,Open,12
F,67,2019-07-17,Yujiao Tan,1990-10-04,China,133,137,-141,137,-141,137,66.54,B,Raw,Open,1
F,73,2019-07-17,Maria Montserrat Alcoba Membrilla,1981-06-23,Spain,-95,-97,-100,,,,71.57,B,Raw,Open,DQ
F,73,2019-07-17,Chika Sakamoto,1982-03-08,Japan,-67,67,-72,67,,67,71.91,B,Raw,Open,13
F,73,2019-07-17,Souhad Ghazouani,1982-08-07,France,-109,-109,-109,,,,72.46,B,Raw,Open,DQ
F,73,2019-07-17,Arawan Bootpo,1984-10-10,Thailand,-85,85,88,88,,88,70.14,B,Raw,Open,12
F,73,2019-07-17,Rujapa Chaipidech,1974-01-30,Thailand,-65,-65,65,65,,65,72.45,B,Raw,Open,15
F,73,2019-07-17,Nataliia Oliinyk,1981-07-09,Ukraine,116,-121,-121,116,,116,72,B,Raw,Open,5
F,73,2019-07-17,Sibel Cam,1990-07-04,Turkey,-122,122,124,124,,124,71.94,B,Raw,Open,2
F,73,2019-07-17,Nazgul Izmaganbetova,1981-06-13,Kazakhstan,60,66,-71,66,,66,72.34,B,Raw,Open,14
F,73,2019-07-17,Rehab Abougharbya,1977-11-29,Egypt,110,113,117,117,,117,70.77,B,Raw,Open,4
F,73,2019-07-17,Sanae Soubane,1978-05-20,Morocco,110,113,-116,113,,113,72.39,B,Raw,Open,6
F,73,2019-07-17,Miaoyu Han,1988-07-23,China,121,-126,126,126,,126,72.66,B,Raw,Open,1
F,73,2019-07-17,Amal Mahmoud Hanafy Mahmoud,1978-10-21,Egypt,116,121,123,123,,123,67.42,B,Raw,Open,3
F,73,2019-07-17,Rasha Alshikh,1975-04-10,Syria,102,-109,-111,102,,102,72.44,B,Raw,Open,10
F,73,2019-07-17,Nadezhda Sycheva,1988-05-12,Russia,107,112,-116,112,,112,71.92,B,Raw,Open,7
F,73,2019-07-17,Maria Antonieta Ortiz,1982-01-20,Chile,-108,108,-114,108,,108,72.13,B,Raw,Open,8
F,73,2019-07-17,Paulina Ebere Okpala,1989-03-28,Nigeria,-118,-121,-123,,,,71.17,B,Raw,Open,DQ
F,73,2019-07-17,Britney Arendse,1999-12-17,Ireland,-97,101,102,102,,102,72.01,B,Raw,Open,9
F,73,2019-07-17,Nurtani Purba,1975-03-28,Indonesia,100,-105,-110,100,,100,70.45,B,Raw,Open,11
F,79,2019-07-17,Elena Machekhina,1997-01-15,Russia,96,101,-105,101,,101,76.63,B,Raw,Open,8
F,79,2019-07-17,Aigul Baizhanova,1978-11-09,Kazakhstan,66,-71,-71,66,,66,77.93,B,Raw,Open,13
F,79,2019-07-17,Gehan Hassan,1972-06-13,Egypt,65,-70,-75,65,,65,77.22,B,Raw,Open,14
F,79,2019-07-17,Asma Issa,1991-09-25,Jordan,107,113,-117,113,,113,74.39,B,Raw,Open,4
F,79,2019-07-17,Lili Xu,1981-02-01,China,128,-138,-139,128,,128,75.55,B,Raw,Open,2
F,79,2019-07-17,Siti Mahmudah,1990-02-01,Indonesia,-116,116,118,118,,118,77.01,B,Raw,Open,3
F,79,2019-07-17,Galina Marintseva,1982-05-10,Russia,93,96,-98,96,,96,75.32,B,Raw,Open,10
F,79,2019-07-17,Haifa Naqbi,1981-08-12,UAE,-92,92,-97,92,,92,76.68,B,Raw,Open,11
F,79,2019-07-17,Mayagozel Ekeyeva,1986-05-05,Turkmenistan,105,108,-116,108,,108,76.93,B,Raw,Open,5
F,79,2019-07-17,Bose Omolayo,1989-02-01,Nigeria,134,139,142,142,,142,78.19,B,Raw,Open,1
F,79,2019-07-17,Beata Jankowska,1991-02-08,Poland,90,93,96,96,,96,74.59,B,Raw,Open,9
F,79,2019-07-17,Marion Alejandra Serrano Guajardo,1999-09-08,Chile,103,108,-114,108,,108,78.29,B,Raw,Open,6
F,79,2019-07-17,Lyubov Semenyuk,1959-05-01,Ukraine,100,105,-109,105,,105,76.92,B,Raw,Open,7
F,79,2019-07-17,Larisa Marinenkova,1969-03-07,Moldova,83,-88,-88,83,,83,74.34,B,Raw,Open,12
F,86,2019-07-18,Hanan Majid Jumaah Al-Majidi,1990-12-07,Iraq,108,113,-118,113,,113,80.61,B,Raw,Open,9
F,86,2019-07-18,Youngsun Lee,1967-10-16,South Korea,107,113,-117,113,,113,83.81,B,Raw,Open,10
F,86,2019-07-18,Alice Folashade Oluwafemiayo,1985-03-11,Nigeria,138,145,150,150,,150,85.62,B,Raw,Open,1
F,86,2019-07-18,Karolina Lingyte,1989-01-02,Lithuania,-89,92,95,95,,95,85.45,B,Raw,Open,12
F,86,2019-07-18,Tayana Medeiros,1993-03-14,Brazil,111,114,118,118,,118,85.03,B,Raw,Open,8
F,86,2019-07-18,Vera Muratova,1980-07-03,Russia,138,143,-148,143,,143,83.15,B,Raw,Open,3
F,86,2019-07-18,Amany Ali,1976-03-02,Egypt,125,131,-139,131,,131,84.15,B,Raw,Open,5
F,86,2019-07-18,Feifei Zheng,1996-06-08,China,140,144,147,147,,147,82.16,B,Raw,Open,2
F,86,2019-07-18,Tharwh Tayseer Hamdan Alhajaj,1973-01-01,Jordan,116,121,127,127,,127,84.42,B,Raw,Open,6
F,86,2019-07-18,Louise Sugden,1984-07-20,UK,116,118,120,120,,120,83.27,B,Raw,Open,7
F,86,2019-07-18,Fengmei Li,1974-09-03,China,135,139,-144,139,,139,85.24,B,Raw,Open,4
F,86,2019-07-18,Alina Kumeyko,1997-07-27,Ukraine,-110,110,-115,110,,110,84.55,B,Raw,Open,11
F,86,2019-07-18,Claudia Magaly Miranda Orantes,1978-05-27,Mexico,81,-86,-86,81,,81,80,B,Raw,Open,14
F,86,2019-07-18,Lyazzat Zhakupova,1975-07-19,Kazakhstan,-82,-82,82,82,,82,83.52,B,Raw,Open,13
F,86+,2019-07-19,Precious Orji,1979-04-08,Nigeria,125,133,143,143,,143,126.91,B,Raw,Open,4
F,86+,2019-07-19,Polina Katsman,1966-10-07,Israel,113,117,120,120,,120,107.91,B,Raw,Open,11
F,86+,2019-07-19,Hyun Jung Lee,1986-05-04,South Korea,113,-118,-118,113,,113,109.38,B,Raw,Open,12
F,86+,2019-07-19,Randa Mahmoud,1987-08-20,Egypt,134,140,143,143,,143,90.32,B,Raw,Open,3
F,86+,2019-07-19,Irina Sadovnikova,1982-07-22,Russia,125,-132,-137,125,,125,122.53,B,Raw,Open,10
F,86+,2019-07-19,Huda Ali,1977-03-03,Iraq,-108,108,-114,108,,108,116.52,B,Raw,Open,13
F,86+,2019-07-19,Marzena Zieba,1990-03-27,Poland,130,135,137,137,,137,110.58,B,Raw,Open,6
F,86+,2019-07-19,Ashley Nicole Dyce,1987-02-25,USA,105,-110,-115,105,,105,120.61,B,Raw,Open,14
F,86+,2019-07-19,Xuemei Deng,1991-12-03,China,145,-151,151,151,,151,109.71,B,Raw,Open,1
F,86+,2019-07-19,Netsuda Panna,1982-01-01,Thailand,80,85,90,90,,90,99.08,B,Raw,Open,15
F,86+,2019-07-19,Perla Patricia Bárcenas Ponce de León,1971-05-13,Mexico,133,136,-141,136,,136,96.88,B,Raw,Open,7
F,86+,2019-07-19,Vasilina Shestakova,1983-06-28,Russia,-118,118,125,125,,125,108.41,B,Raw,Open,9
F,86+,2019-07-19,Sriyanti,1985-10-23,Indonesia,118,125,-130,125,,125,104.41,B,Raw,Open,8
F,86+,2019-07-19,Nadia Ali,1974-07-27,Egypt,131,135,138,138,,138,108.79,B,Raw,Open,5
F,86+,2019-07-19,Loveline Adaure Obiji,1990-09-11,Nigeria,140,-150,150,150,,150,100.61,B,Raw,Open,2
F,86+,2019-07-19,Zarina Primak,1980-06-29,Kazakhstan,55,-60,62,62,,62,96,B,Raw,Open,16
